{
    "ASP": "% The three basic objects.\nsubject(S):- triplet(S,_,_).\nrelation(R):- triplet(_,R,_).\nobject(O):- triplet(_,_,O).\n\n% Put a link between subjects and objects.\nlink(S,O):- triplet(S,_,O).\n\n% labels on edges and nodes\nlabel(S,O,R):- triplet(S,R,O).\nlabel(S,S):- subject(S).\nlabel(O,O):- object(O).\n\n% Put an arrow on edges\nobj_property(edge,arrowhead,normal).\n",
    "description": "Basic implementation of rules to show RDF in visual",
    "name": "rdf_shower",
    "tags": ["RDF"],
    "inputs": [
        "triplet/3"
    ],
    "outputs": [
        "label/2",
        "label/3",
        "obj_property/3",
        "subject/1",
        "object/1",
        "relation/1"
    ],
    "active at startup": false
}
